FLUXNET-CH4 Upscaling
…
hh <- lapply(hh, expand_date)
hh[[2]] # check it worked

## # A tibble: 17,519 x 42
## # Groups:   Year, DOY [365]
##     Year Month  Week   Day    HH   DOY     NEE       H      LE  FCH4  USTAR
##    <dbl> <dbl> <dbl> <dbl> <int> <dbl>   <dbl>   <dbl>   <dbl> <dbl>  <dbl>
##  1  2018     1     1     1     1     1 -9999   -9999   -9999   -9999 0.0597
##  2  2018     1     1     1     2     1 -9999   -9999   -9999   -9999 0.0815
##  3  2018     1     1     1     3     1    24.6   -38.0    21.5 -9999 0.167 
##  4  2018     1     1     1     4     1 -9999   -9999   -9999   -9999 0.0418
##  5  2018     1     1     1     5     1 -9999   -9999   -9999   -9999 0.0303
##  6  2018     1     1     1     6     1 -9999   -9999   -9999   -9999 0.0626
##  7  2018     1     1     1     7     1 -9999   -9999   -9999   -9999 0.104 
##  8  2018     1     1     1     8     1 -9999   -9999   -9999   -9999 0.05  
##  9  2018     1     1     1     9     1 -9999   -9999   -9999   -9999 0.0336
## 10  2018     1     1     1    10     1 -9999   -9999   -9999   -9999 0.0501
## #  with 17,509 more rows, and 31 more variables: SW_IN <dbl>, PPFD_IN <dbl>,
## #   VPD <dbl>, RH <dbl>, PA <dbl>, TA <dbl>, GPP_NT <dbl>, RECO_NT <dbl>,
## #   GPP_DT <dbl>, RECO_DT <dbl>, WD <dbl>, WS <dbl>, NEE_F <dbl>, H_F <dbl>,
## #   LE_F <dbl>, FCH4_F <dbl>, SW_IN_F <dbl>, LW_IN_F <dbl>, PPFD_IN_F <dbl>,
## #   VPD_F <dbl>, RH_F <dbl>, PA_F <dbl>, TA_F <dbl>, P_F <dbl>, WS_F <dbl>,
## #   LE_F_ANNOPTLM <dbl>, NEE_F_ANNOPTLM <dbl>, FCH4_F_ANNOPTLM <dbl>,
## #   FCH4_F_RANDUNC <dbl>, FCH4_F_ANNOPTLM_UNC <dbl>, FCH4_F_ANNOPTLM_QC <dbl>

Check if gap-filled FCH4 CH4_F_ANNOPTLM has already been pre-filled with observations FCH4, where available.

hh[[1]] 

## # A tibble: 53,855 x 55
## # Groups:   Year, DOY [1,122]
##     Year Month  Week   Day    HH   DOY     NEE       H      LE    FCH4 USTAR
##    <dbl> <dbl> <dbl> <dbl> <int> <dbl>   <dbl>   <dbl>   <dbl>   <dbl> <dbl>
##  1  2013    12    49     6     1   340 -1.00e4 -1.00e4 -1.00e4 -9999    0.09
##  2  2013    12    49     6     2   340 -1.00e4 -1.00e4 -1.00e4 -9999    0.07
##  3  2013    12    49     6     3   340 -1.00e4 -1.00e4 -1.00e4 -9999    0.07
##  4  2013    12    49     6     4   340 -1.00e4 -1.00e4 -1.00e4 -9999    0.06
##  5  2013    12    49     6     5   340 -1.00e4 -1.00e4 -1.00e4 -9999    0.09
##  6  2013    12    49     6     6   340 -1.00e4 -1.00e4 -1.00e4 -9999    0.07
##  7  2013    12    49     6     7   340  9.99e0 -4.73e0  3.94e0    10.7  0.22
##  8  2013    12    49     6     8   340 -1.00e4 -1.00e4 -1.00e4 -9999    0.06
##  9  2013    12    49     6     9   340 -1.00e4 -1.00e4 -1.00e4 -9999    0.04
## 10  2013    12    49     6    10   340 -1.00e4 -1.00e4 -1.00e4 -9999    0.04
## #  with 53,845 more rows, and 44 more variables: SW_IN <dbl>, SW_OUT <dbl>,
## #   LW_IN <dbl>, LW_OUT <dbl>, NETRAD <dbl>, PPFD_IN <dbl>, PPFD_OUT <dbl>,
## #   VPD <dbl>, RH <dbl>, PA <dbl>, TA <dbl>, P <dbl>, TS_1 <dbl>, TS_2 <dbl>,
## #   G <dbl>, WTD <dbl>, GPP_NT <dbl>, RECO_NT <dbl>, GPP_DT <dbl>,
## #   RECO_DT <dbl>, WD <dbl>, WS <dbl>, NEE_F <dbl>, H_F <dbl>, LE_F <dbl>,
## #   FCH4_F <dbl>, SW_IN_F <dbl>, SW_OUT_F <dbl>, LW_IN_F <dbl>, LW_OUT_F <dbl>,
## #   NETRAD_F <dbl>, VPD_F <dbl>, RH_F <dbl>, PA_F <dbl>, TA_F <dbl>, P_F <dbl>,
## #   WTD_F <dbl>, WS_F <dbl>, LE_F_ANNOPTLM <dbl>, NEE_F_ANNOPTLM <dbl>,
## #   FCH4_F_ANNOPTLM <dbl>, FCH4_F_RANDUNC <dbl>, FCH4_F_ANNOPTLM_UNC <dbl>,
…
Count NAs before despiking:

modis_nas <- modis %>%
  group_by(ID) %>%
  summarize_all(list(~sum(is.na(.)))) 
modis_nas

## # A tibble: 86 x 14
##    ID     Date  Year Month  Week   DOY  NDSI  NDVI   EVI   LAI  NDWI  SRWI  LSWI
##  * <chr> <int> <int> <int> <int> <int> <int> <int> <int> <int> <int> <int> <int>
##  1 ATNeu     0     0     0     0     0  4584  5987  6195  6331  6000  6021  5987
##  2 BRNpw     0     0     0     0     0  3796  5970  5996  6013  5971  6006  5975
##  3 BWGum     0     0     0     0     0  2142  5971  5981  5972  5973  6012  5974
##  4 BWNxr     0     0     0     0     0  2043  5971  5976  5977  5972  6004  5973
##  5 CADBB     0     0     0     0     0  4328  5972  6053  6169  5973  6007  5974
##  6 CASCB     0     0     0     0     0  3895  5972  6414  6462  5972  6012  5975
##  7 CASCC     0     0     0     0     0  4545  5971  6415  6416  5975  6020  5975
##  8 CHCha     0     0     0     0     0  4552  5970  6088  6223  5973  6007  5972
##  9 CHDav     0     0     0     0     0  4430  5970  6302  6153  5973  5999  5972
## 10 CHOe2     0     0     0     0     0  4600  5970  6105  6187  5971  6017  5973
## #  with 76 more rows, and 1 more variable: LSTN <int>
…
Count NAs after despiking:

modis_dsp_nas <- modis_dsp %>%
  group_by(ID) %>%
  summarize_all(list(~sum(is.na(.)))) 
modis_dsp_nas

## # A tibble: 86 x 22
##    ID     Date  Year Month  Week   DOY  NDSI  NDVI   EVI   LAI  NDWI  SRWI  LSWI
##  * <chr> <int> <int> <int> <int> <int> <int> <int> <int> <int> <int> <int> <int>
##  1 ATNeu     0     0     0     0     0  4584  5987  6195  6331  6000  6021  5987
##  2 BRNpw     0     0     0     0     0  3796  5970  5996  6013  5971  6006  5975
##  3 BWGum     0     0     0     0     0  2142  5971  5981  5972  5973  6012  5974
##  4 BWNxr     0     0     0     0     0  2043  5971  5976  5977  5972  6004  5973
##  5 CADBB     0     0     0     0     0  4328  5972  6053  6169  5973  6007  5974
##  6 CASCB     0     0     0     0     0  3895  5972  6414  6462  5972  6012  5975
##  7 CASCC     0     0     0     0     0  4545  5971  6415  6416  5975  6020  5975
##  8 CHCha     0     0     0     0     0  4552  5970  6088  6223  5973  6007  5972
##  9 CHDav     0     0     0     0     0  4430  5970  6302  6153  5973  5999  5972
## 10 CHOe2     0     0     0     0     0  4600  5970  6105  6187  5971  6017  5973
## #  with 76 more rows, and 9 more variables: LSTN <int>, NDSI_dsp <int>,
## #   NDVI_dsp <int>, EVI_dsp <int>, LAI_dsp <int>, NDWI_dsp <int>,
## #   SRWI_dsp <int>, LSWI_dsp <int>, LSTN_dsp <int>
…
Visualize again above to check they are corrected.

Also check for missing data:

earthenv %>% 
  gather(key = "var", value = "value", 15:41) %>% 
  mutate(missing = is.na(value)) %>% 
  group_by(ID) %>% 
  summarize(total = n(),
            missing = sum(missing)) %>% 
  arrange(desc(missing))

## # A tibble: 81 x 3
##    ID    total missing
##    <chr> <int>   <int>
##  1 USDPW    27      11
##  2 USWPT    27      11
##  3 ATNeu    27       0
##  4 BRNpw    27       0
##  5 BWGum    27       0
##  6 BWNxr    27       0
##  7 CASCB    27       0
##  8 CASCC    27       0
##  9 CHCha    27       0
## 10 CHDav    27       0
## #  with 71 more rows
…
